<!--div class="wrap">
    <?php
    NavBar::begin([
        'brandLabel' => 'My Company',
        'brandUrl' => Yii::$app->homeUrl,
        'options' => [
            'class' => 'navbar-inverse navbar-fixed-top',
        ],
    ]);
    echo Nav::widget([
        'options' => ['class' => 'navbar-nav navbar-right'],
        'items' => [
            ['label' => 'Home', 'url' => ['/site/index']],
            ['label' => 'About', 'url' => ['/site/about']],
            ['label' => 'Contact', 'url' => ['/site/contact']],
            Yii::$app->user->isGuest ? (
                ['label' => 'Login', 'url' => ['/site/login']]
            ) : (
                '<li>'
                . Html::beginForm(['/site/logout'], 'post')
                . Html::submitButton(
                    'Logout (' . Yii::$app->user->identity->username . ')',
                    ['class' => 'btn btn-link logout']
                )
                . Html::endForm()
                . '</li>'
            )
        ],
    ]);
    NavBar::end();
    ?>

    <div class="container">
        <?= Breadcrumbs::widget([
            'links' => isset($this->params['breadcrumbs']) ? $this->params['breadcrumbs'] : [],
        ]) ?>
        <?= $content ?>
    </div>
</div-->

<!--footer class="footer">
    <div class="container">
        <p class="pull-left">&copy; My Company <?= date('Y') ?></p>

        <p class="pull-right"><?= Yii::powered() ?></p>
    </div>
</footer-->